…
So why didn't we used the already fully cleaned dataset instead of having to tokenize the original, uncleaned dataset, and then re-apply the ``stop_words`` lexicon to it?

 If we used the variable containing our customized stopwords lexicon, using the same code to calculate and plot the contribution of individual words to the sentiment, then our results will be this: 
``` r
# A tibble: 516 x 3
   word         sentiment     n
   <chr>        <chr>     <int>
 1 abuse        negative      1
 2 abused       negative      1
 3 abyss        negative      1
 4 accessible   positive      1
 5 accomplished positive      1
 6 accurate     positive      1
 7 achievement  positive      1
 8 achievements positive      1
 9 advanced     positive      1
10 advantage    positive      1
# ... with 506 more rows
```
…
